cpu_tb.vcd
$date
	Tue Apr 21 14:22:42 2026
$end
$version
	Icarus Verilog
$end
$timescale
	1ps
$end
$scope module cpu_tb $end
$var wire 32 ! instruction [31:0] $end
$var wire 32 " WB_result [31:0] $end
$var wire 32 # PC [31:0] $end
$var reg 1 $ clk $end
$var reg 1 % rst $end
$scope module uut $end
$var wire 1 & PCSel_w $end
$var wire 32 ' PC_fetch_out [31:0] $end
$var wire 32 ( WB_result_out [31:0] $end
$var wire 1 $ clk $end
$var wire 1 ) flush_w $end
$var wire 32 * instr_fetch_out [31:0] $end
$var wire 32 + jump_target_w [31:0] $end
$var wire 1 % rst $end
$var wire 32 , rs2_val_id_w [31:0] $end
$var wire 32 - rs2_val_ex_w [31:0] $end
$var wire 5 . rs2_id_w [4:0] $end
$var wire 5 / rs2_ex_w [4:0] $end
$var wire 32 0 rs1_val_id_w [31:0] $end
$var wire 5 1 rs1_id_w [4:0] $end
$var wire 5 2 rs1_ex_w [4:0] $end
$var wire 2 3 resultSrc_mem_w [1:0] $end
$var wire 2 4 resultSrc_id_w [1:0] $end
$var wire 2 5 resultSrc_ex_w [1:0] $end
$var wire 1 6 regWrite_wb_w $end
$var wire 1 7 regWrite_mem_w $end
$var wire 1 8 regWrite_id_w $end
$var wire 1 9 regWrite_ex_w $end
$var wire 5 : rd_wb_w [4:0] $end
$var wire 5 ; rd_mem_w [4:0] $end
$var wire 5 < rd_id_w [4:0] $end
$var wire 5 = rd_ex_w [4:0] $end
$var wire 32 > mem_result_mem_w [31:0] $end
$var wire 1 ? memWrite_id_w $end
$var wire 1 @ memWrite_ex_w $end
$var wire 1 A memRead_id_w $end
$var wire 1 B memRead_ex_w $end
$var wire 32 C jump_target_ex_w [31:0] $end
$var wire 32 D jump_target_early_w [31:0] $end
$var wire 1 E jump_id_w $end
$var wire 1 F jalr_id_w $end
$var wire 32 G instr_if_w [31:0] $end
$var wire 32 H instr_id_w [31:0] $end
$var wire 32 I instr_ex_w [31:0] $end
$var wire 32 J immediate_id_w [31:0] $end
$var wire 1 K branch_id_w $end
$var wire 1 L bgef3_id_w $end
$var wire 32 M WB_result_w [31:0] $end
$var wire 32 N PC_plus_4_mem_w [31:0] $end
$var wire 32 O PC_if_w [31:0] $end
$var wire 32 P PC_id_w [31:0] $end
$var wire 32 Q PC_ex_w [31:0] $end
$var wire 1 R PCSel_ex_w $end
$var wire 1 S PCSel_early_w $end
$var wire 32 T ALU_result_mem_w [31:0] $end
$var wire 32 U ALU_result_ex_w [31:0] $end
$var wire 1 V ALUSrc_id_w $end
$var wire 4 W ALUControl_id_w [3:0] $end
$scope module EX_STAGE $end
$var wire 1 X ALUSrc_jal $end
$var wire 1 S PCSel_early_out $end
$var wire 1 Y PCSel_w $end
$var wire 1 $ clk $end
$var wire 32 Z jump_target_early_out [31:0] $end
$var wire 1 % rst $end
$var wire 1 [ zero $end
$var wire 32 \ rs2_val_out [31:0] $end
$var wire 32 ] rs2_val_in [31:0] $end
$var wire 5 ^ rs2_out [4:0] $end
$var wire 5 _ rs2_in [4:0] $end
$var wire 32 ` rs1_val [31:0] $end
$var wire 5 a rs1_out [4:0] $end
$var wire 5 b rs1_in [4:0] $end
$var wire 2 c resultSrc_out [1:0] $end
$var wire 2 d resultSrc_in [1:0] $end
$var wire 1 9 regWrite_out $end
$var wire 1 8 regWrite_in $end
$var wire 5 e rd_out [4:0] $end
$var wire 5 f rd_in [4:0] $end
$var wire 1 g negative $end
$var wire 1 @ memWrite_out $end
$var wire 1 ? memWrite_in $end
$var wire 1 B memRead_out $end
$var wire 1 A memRead_in $end
$var wire 32 h jump_target_w [31:0] $end
$var wire 32 i jump_target_out [31:0] $end
$var wire 1 E jump $end
$var wire 1 F jalr $end
$var wire 32 j instruction_out [31:0] $end
$var wire 32 k instruction_in [31:0] $end
$var wire 32 l immediate [31:0] $end
$var wire 1 m condition_met $end
$var wire 1 K branch $end
$var wire 1 L bgef3 $end
$var wire 32 n PC_plus_imm [31:0] $end
$var wire 32 o PC_out [31:0] $end
$var wire 32 p PC_in [31:0] $end
$var wire 1 R PCSel_out $end
$var wire 32 q ALU_result_w [31:0] $end
$var wire 32 r ALU_result_out [31:0] $end
$var wire 32 s ALU_in_B [31:0] $end
$var wire 32 t ALU_in_A [31:0] $end
$var wire 1 V ALUSrc $end
$var wire 4 u ALUControl [3:0] $end
$scope module ALU_A_mux $end
$var wire 1 X s $end
$var wire 32 v f [31:0] $end
$var wire 32 w b [31:0] $end
$var wire 32 x a [31:0] $end
$upscope $end
$scope module ALU_B_mux $end
$var wire 1 V s $end
$var wire 32 y f [31:0] $end
$var wire 32 z b [31:0] $end
$var wire 32 { a [31:0] $end
$upscope $end
$scope module alu_ $end
$var wire 32 | A [31:0] $end
$var wire 32 } B [31:0] $end
$var wire 1 [ zero $end
$var wire 32 ~ result [31:0] $end
$var wire 1 g negative $end
$var wire 4 !" ALUControl [3:0] $end
$upscope $end
$scope module branch_adder $end
$var wire 32 "" f [31:0] $end
$var wire 32 #" b [31:0] $end
$var wire 32 $" a [31:0] $end
$upscope $end
$scope module branch_jump_mux $end
$var wire 32 %" a [31:0] $end
$var wire 32 &" b [31:0] $end
$var wire 1 F s $end
$var wire 32 '" f [31:0] $end
$upscope $end
$scope module pipe_reg $end
$var wire 32 (" ALU_result_r [31:0] $end
$var wire 1 Y PCSel_r $end
$var wire 1 $ clk $end
$var wire 32 )" jump_target_r [31:0] $end
$var wire 1 % rst $end
$var wire 32 *" rs2_val_r [31:0] $end
$var wire 5 +" rs2_r [4:0] $end
$var wire 5 ," rs1_r [4:0] $end
$var wire 2 -" resultSrc_r [1:0] $end
$var wire 1 8 regWrite_r $end
$var wire 5 ." rd_r [4:0] $end
$var wire 1 ? memWrite_r $end
$var wire 1 A memRead_r $end
$var wire 32 /" instruction_r [31:0] $end
$var wire 32 0" PC_r [31:0] $end
$var reg 32 1" ALU_result [31:0] $end
$var reg 32 2" PC [31:0] $end
$var reg 1 R PCSel $end
$var reg 32 3" instruction [31:0] $end
$var reg 32 4" jump_target [31:0] $end
$var reg 1 B memRead $end
$var reg 1 @ memWrite $end
$var reg 5 5" rd [4:0] $end
$var reg 1 9 regWrite $end
$var reg 2 6" resultSrc [1:0] $end
$var reg 5 7" rs1 [4:0] $end
$var reg 5 8" rs2 [4:0] $end
$var reg 32 9" rs2_val [31:0] $end
$upscope $end
$upscope $end
$scope module ID_STAGE $end
$var wire 1 $ clk $end
$var wire 1 ) flush $end
$var wire 1 % rst $end
$var wire 5 :" rs2_w [4:0] $end
$var wire 32 ;" rs2_val_w [31:0] $end
$var wire 32 <" rs2_val_out [31:0] $end
$var wire 5 =" rs2_out [4:0] $end
$var wire 5 >" rs1_w [4:0] $end
$var wire 32 ?" rs1_val_w [31:0] $end
$var wire 32 @" rs1_val_out [31:0] $end
$var wire 5 A" rs1_out [4:0] $end
$var wire 2 B" resultSrc_w [1:0] $end
$var wire 2 C" resultSrc_out [1:0] $end
$var wire 1 D" regWrite_w $end
$var wire 1 8 regWrite_out $end
$var wire 1 6 regWrite_in $end
$var wire 5 E" rd_w [4:0] $end
$var wire 5 F" rd_out [4:0] $end
$var wire 5 G" rd_in [4:0] $end
$var wire 1 H" memWrite_w $end
$var wire 1 ? memWrite_out $end
$var wire 1 I" memRead_w $end
$var wire 1 A memRead_out $end
$var wire 1 J" jump_w $end
$var wire 1 E jump_out $end
$var wire 1 K" jalr_w $end
$var wire 1 F jalr_out $end
$var wire 32 L" instruction_out [31:0] $end
$var wire 32 M" instruction_in [31:0] $end
$var wire 32 N" immediate_w [31:0] $end
$var wire 32 O" immediate_out [31:0] $end
$var wire 2 P" immSrc [1:0] $end
$var wire 1 Q" branch_w $end
$var wire 1 K branch_out $end
$var wire 1 L bgef3_out $end
$var wire 32 R" WB_result [31:0] $end
$var wire 32 S" PC_out [31:0] $end
$var wire 32 T" PC_in [31:0] $end
$var wire 1 U" ALUSrc_w $end
$var wire 1 V ALUSrc_out $end
$var wire 2 V" ALUOp [1:0] $end
$var wire 4 W" ALUControl_w [3:0] $end
$var wire 4 X" ALUControl_out [3:0] $end
$scope module ALUControl $end
$var wire 3 Y" funct3 [2:0] $end
$var wire 7 Z" funct7 [6:0] $end
$var wire 2 [" ALUOp [1:0] $end
$var wire 4 \" ALUControl [3:0] $end
$upscope $end
$scope module CU $end
$var wire 3 ]" funct3 [2:0] $end
$var wire 7 ^" funct7 [6:0] $end
$var wire 7 _" opcode [6:0] $end
$var wire 2 `" resultSrc [1:0] $end
$var wire 1 D" regWrite $end
$var wire 1 H" memWrite $end
$var wire 1 I" memRead $end
$var wire 1 J" jump $end
$var wire 1 K" jalr $end
$var wire 2 a" immSrc [1:0] $end
$var wire 1 Q" branch $end
$var wire 1 U" ALUSrc $end
$var wire 2 b" ALUOp [1:0] $end
$upscope $end
$scope module IMM $end
$var wire 2 c" immSrc [1:0] $end
$var wire 32 d" inst [31:0] $end
$var wire 32 e" immediate [31:0] $end
$upscope $end
$scope module RF $end
$var wire 1 $ clk $end
$var wire 5 f" rs1 [4:0] $end
$var wire 5 g" rs2 [4:0] $end
$var wire 1 % rst $end
$var wire 1 6 regWrite $end
$var wire 5 h" rd [4:0] $end
$var wire 32 i" WB_result [31:0] $end
$var reg 32 j" rs1_val [31:0] $end
$var reg 32 k" rs2_val [31:0] $end
$var integer 32 l" i [31:0] $end
$upscope $end
$scope module pipe_reg $end
$var wire 4 m" ALUControl_r [3:0] $end
$var wire 1 U" ALUSrc_r $end
$var wire 1 n" bgef3_r $end
$var wire 1 Q" branch_r $end
$var wire 1 $ clk $end
$var wire 32 o" immediate_r [31:0] $end
$var wire 1 K" jalr_r $end
$var wire 1 J" jump_r $end
$var wire 1 I" memRead_r $end
$var wire 1 H" memWrite_r $end
$var wire 5 p" rd_r [4:0] $end
$var wire 1 D" regWrite_r $end
$var wire 2 q" resultSrc_r [1:0] $end
$var wire 5 r" rs1_r [4:0] $end
$var wire 32 s" rs1_val_r [31:0] $end
$var wire 5 t" rs2_r [4:0] $end
$var wire 32 u" rs2_val_r [31:0] $end
$var wire 1 v" rst $end
$var wire 32 w" instruction_r [31:0] $end
$var wire 32 x" PC_r [31:0] $end
$var reg 4 y" ALUControl [3:0] $end
$var reg 1 V ALUSrc $end
$var reg 32 z" PC [31:0] $end
$var reg 1 L bgef3 $end
$var reg 1 K branch $end
$var reg 32 {" immediate [31:0] $end
$var reg 32 |" instruction [31:0] $end
$var reg 1 F jalr $end
$var reg 1 E jump $end
$var reg 1 A memRead $end
$var reg 1 ? memWrite $end
$var reg 5 }" rd [4:0] $end
$var reg 1 8 regWrite $end
$var reg 2 ~" resultSrc [1:0] $end
$var reg 5 !# rs1 [4:0] $end
$var reg 32 "# rs1_val [31:0] $end
$var reg 5 ## rs2 [4:0] $end
$var reg 32 $# rs2_val [31:0] $end
$upscope $end
$upscope $end
$scope module IF_STAGE $end
$var wire 1 & PCSel $end
$var wire 1 $ clk $end
$var wire 32 %# jump_target [31:0] $end
$var wire 1 % rst $end
$var wire 32 &# next_PC_val [31:0] $end
$var wire 32 '# instruction_w [31:0] $end
$var wire 32 (# instruction_out [31:0] $end
$var wire 32 )# PC_w [31:0] $end
$var wire 32 *# PC_plus_4 [31:0] $end
$var wire 32 +# PC_out [31:0] $end
$scope module IFID $end
$var wire 1 $ clk $end
$var wire 1 & flush $end
$var wire 1 % rst $end
$var wire 32 ,# instr_r [31:0] $end
$var wire 32 -# PC_r [31:0] $end
$var reg 32 .# PC [31:0] $end
$var reg 32 /# instr [31:0] $end
$upscope $end
$scope module IM $end
$var wire 32 0# instruction [31:0] $end
$var wire 32 1# PC [31:0] $end
$var integer 32 2# i [31:0] $end
$upscope $end
$scope module PC_Reg $end
$var wire 1 $ clk $end
$var wire 1 % rst $end
$var wire 32 3# PC_mux_output [31:0] $end
$var reg 32 4# PC [31:0] $end
$upscope $end
$scope module adder_4 $end
$var wire 32 5# a [31:0] $end
$var wire 32 6# b [31:0] $end
$var wire 32 7# f [31:0] $end
$upscope $end
$scope module mux $end
$var wire 32 8# a [31:0] $end
$var wire 32 9# b [31:0] $end
$var wire 1 & s $end
$var wire 32 :# f [31:0] $end
$upscope $end
$upscope $end
$scope module MEM_STAGE $end
$var wire 32 ;# ALU_result_in [31:0] $end
$var wire 32 <# PC_in [31:0] $end
$var wire 1 $ clk $end
$var wire 1 B memRead_in $end
$var wire 1 @ memWrite_in $end
$var wire 5 =# rd_in [4:0] $end
$var wire 1 9 regWrite_in $end
$var wire 2 ># resultSrc_in [1:0] $end
$var wire 32 ?# rs2_val_in [31:0] $end
$var wire 1 % rst $end
$var wire 2 @# resultSrc_out [1:0] $end
$var wire 1 7 regWrite_out $end
$var wire 5 A# rd_out [4:0] $end
$var wire 32 B# mem_result_w [31:0] $end
$var wire 32 C# mem_result_out [31:0] $end
$var wire 32 D# PC_plus_4_w [31:0] $end
$var wire 32 E# PC_plus_4_out [31:0] $end
$var wire 32 F# ALU_result_out [31:0] $end
$scope module DMEM $end
$var wire 32 G# ALU_result [31:0] $end
$var wire 1 $ clk $end
$var wire 1 B memRead $end
$var wire 1 @ memWrite $end
$var wire 32 H# rs2_val [31:0] $end
$var reg 32 I# mem_result [31:0] $end
$var integer 32 J# i [31:0] $end
$upscope $end
$scope module pipe_reg $end
$var wire 32 K# ALU_result_r [31:0] $end
$var wire 32 L# PC_plus_4_r [31:0] $end
$var wire 1 $ clk $end
$var wire 32 M# mem_result_r [31:0] $end
$var wire 5 N# rd_r [4:0] $end
$var wire 1 9 regWrite_r $end
$var wire 2 O# resultSrc_r [1:0] $end
$var wire 1 % rst $end
$var reg 32 P# ALU_result [31:0] $end
$var reg 32 Q# PC_plus_4 [31:0] $end
$var reg 32 R# mem_result [31:0] $end
$var reg 5 S# rd [4:0] $end
$var reg 1 7 regWrite $end
$var reg 2 T# resultSrc [1:0] $end
$upscope $end
$upscope $end
$scope module WB_STAGE $end
$var wire 32 U# ALU_result_in [31:0] $end
$var wire 32 V# PC_plus_4_in [31:0] $end
$var wire 32 W# mem_result_in [31:0] $end
$var wire 5 X# rd_in [4:0] $end
$var wire 5 Y# rd_out [4:0] $end
$var wire 1 7 regWrite_in $end
$var wire 1 6 regWrite_out $end
$var wire 2 Z# resultSrc_in [1:0] $end
$var wire 32 [# WB_result_out [31:0] $end
$upscope $end
$upscope $end
$upscope $end
$enddefinitions $end
$comment Show the parameter values. $end
$dumpall
$end
#0
$dumpvars
b0 [#
b0 Z#
b0 Y#
b0 X#
b0 W#
b0 V#
b0 U#
b0 T#
b0 S#
b0 R#
b0 Q#
b0 P#
b0 O#
b0 N#
b0 M#
b100 L#
b0 K#
b10000000000 J#
b0 I#
b0 H#
b0 G#
b0 F#
b0 E#
b100 D#
b0 C#
b0 B#
b0 A#
b0 @#
b0 ?#
b0 >#
b0 =#
b0 <#
b0 ;#
bx :#
b0 9#
bx 8#
bx 7#
b100 6#
bx 5#
bx 4#
bx 3#
b100000000000000 2#
bx 1#
bx 0#
b0 /#
b0 .#
bx -#
bx ,#
b0 +#
bx *#
bx )#
b0 (#
bx '#
bx &#
b0 %#
b0 $#
b0 ##
b0 "#
b0 !#
b0 ~"
b0 }"
b0 |"
b0 {"
b0 z"
b0 y"
b0 x"
b0 w"
1v"
b0 u"
b0 t"
b0 s"
b0 r"
b0 q"
b0 p"
b0 o"
0n"
b0 m"
b100000 l"
b0 k"
b0 j"
b0 i"
b0 h"
b0 g"
b0 f"
b0 e"
b0 d"
b11 c"
b1 b"
b11 a"
b0 `"
b0 _"
b0 ^"
b0 ]"
b0 \"
b1 ["
b0 Z"
b0 Y"
b0 X"
b0 W"
b1 V"
1U"
b0 T"
b0 S"
b0 R"
0Q"
b11 P"
b0 O"
b0 N"
b0 M"
b0 L"
0K"
0J"
0I"
0H"
b0 G"
b0 F"
b0 E"
1D"
b0 C"
b0 B"
b0 A"
b0 @"
b0 ?"
b0 >"
b0 ="
b0 <"
b0 ;"
b0 :"
b0 9"
b0 8"
b0 7"
b0 6"
b0 5"
b0 4"
b0 3"
b0 2"
b0 1"
b0 0"
b0 /"
b0 ."
b0 -"
b0 ,"
b0 +"
b0 *"
b0 )"
b0 ("
b0 '"
b0 &"
b0 %"
b0 $"
b0 #"
b0 ""
b0 !"
b0 ~
b0 }
b0 |
b0 {
b0 z
b0 y
b0 x
b0 w
b0 v
b0 u
b0 t
b0 s
b0 r
b0 q
b0 p
b0 o
b0 n
0m
b0 l
b0 k
b0 j
b0 i
b0 h
0g
b0 f
b0 e
b0 d
b0 c
b0 b
b0 a
b0 `
b0 _
b0 ^
b0 ]
b0 \
1[
b0 Z
0Y
0X
b0 W
0V
b0 U
b0 T
0S
0R
b0 Q
b0 P
b0 O
b0 N
b0 M
0L
0K
b0 J
b0 I
b0 H
b0 G
0F
0E
b0 D
b0 C
0B
0A
0@
0?
b0 >
b0 =
b0 <
b0 ;
b0 :
09
08
07
06
b0 5
b0 4
b0 3
b0 2
b0 1
b0 0
b0 /
b0 .
b0 -
b0 ,
b0 +
b0 *
0)
b0 (
b0 '
0&
1%
0$
b0 #
b0 "
b0 !
$end
#5000
b100 &#
b100 3#
b100 :#
b100 *#
b100 7#
b100 8#
b10101000000001000010010100 '#
b10101000000001000010010100 ,#
b10101000000001000010010100 0#
b0 )#
b0 -#
b0 1#
b0 4#
b0 5#
1$
#10000
0v"
0$
0%
#15000
b1 V"
b1 ["
b1 b"
b101010 N"
b101010 e"
b101010 o"
b0 P"
b0 a"
b0 c"
b1 Z"
b1 Y"
b1 ]"
b1 ^"
b10100 _"
b1 E"
b1 p"
b1010 :"
b1010 g"
b1010 t"
b1000 &#
b1000 3#
b1000 :#
b10101000000001000010010100 !
b10101000000001000010010100 *
b10101000000001000010010100 G
b10101000000001000010010100 M"
b10101000000001000010010100 d"
b10101000000001000010010100 w"
b10101000000001000010010100 (#
b10101000000001000010010100 /#
b100 N
b100 E#
b100 Q#
b100 V#
b1000 *#
b1000 7#
b1000 8#
b1000000010100 '#
b1000000010100 ,#
b1000000010100 0#
b100 )#
b100 -#
b100 1#
b100 4#
b100 5#
18
1V
1$
#20000
0$
#25000
1m
b0 N"
b0 e"
b0 o"
0[
b101010 q
b101010 ~
b101010 &"
b101010 ("
b0 Z"
b0 ^"
b0 E"
b0 p"
b0 :"
b0 g"
b0 t"
b1100 &#
b1100 3#
b1100 :#
b101010 +
b101010 %#
b101010 9#
b101010 D
b101010 Z
b101010 h
b101010 '"
b101010 )"
b101010 s
b101010 y
b101010 }
19
b1000000010100 !
b1000000010100 *
b1000000010100 G
b1000000010100 M"
b1000000010100 d"
b1000000010100 w"
b1000000010100 (#
b1000000010100 /#
b100 #
b100 '
b100 O
b100 T"
b100 x"
b100 +#
b100 .#
b1100 *#
b1100 7#
b1100 8#
b1000 )#
b1000 -#
b1000 1#
b1000 4#
b1000 5#
b1 <
b1 f
b1 ."
b1 F"
b1 }"
b1010 .
b1010 _
b1010 +"
b1010 ="
b1010 ##
b101010 n
b101010 ""
b101010 %"
b101010 J
b101010 l
b101010 z
b101010 #"
b101010 O"
b101010 {"
b10101000000001000010010100 H
b10101000000001000010010100 k
b10101000000001000010010100 /"
b10101000000001000010010100 L"
b10101000000001000010010100 |"
1$
#30000
0$
#35000
0m
1[
b0 q
b0 ~
b0 &"
b0 ("
b10000 &#
b10000 3#
b10000 :#
b0 s
b0 y
b0 }
b100 +
b100 %#
b100 9#
b100 D
b100 Z
b100 h
b100 '"
b100 )"
b1000 #
b1000 '
b1000 O
b1000 T"
b1000 x"
b1000 +#
b1000 .#
b101010 C
b101010 i
b101010 4"
b101010 U
b101010 r
b101010 1"
b101010 ;#
b101010 G#
b101010 K#
b1 =
b1 e
b1 5"
b1 =#
b1 N#
b1010 /
b1010 ^
b1010 8"
b10101000000001000010010100 I
b10101000000001000010010100 j
b10101000000001000010010100 3"
16
17
b10000 *#
b10000 7#
b10000 8#
b1100 )#
b1100 -#
b1100 1#
b1100 4#
b1100 5#
b0 <
b0 f
b0 ."
b0 F"
b0 }"
b0 .
b0 _
b0 +"
b0 ="
b0 ##
b0 J
b0 l
b0 z
b0 #"
b0 O"
b0 {"
b100 n
b100 ""
b100 %"
b100 P
b100 p
b100 w
b100 $"
b100 0"
b100 S"
b100 z"
b1000000010100 H
b1000000010100 k
b1000000010100 /"
b1000000010100 L"
b1000000010100 |"
1$
#40000
0$
#45000
b101010 "
b101010 (
b101010 M
b101010 R"
b101010 i"
b101010 [#
b10100 &#
b10100 3#
b10100 :#
b1000 +
b1000 %#
b1000 9#
b1000 D
b1000 Z
b1000 h
b1000 '"
b1000 )"
b1 :
b1 G"
b1 h"
b1 Y#
b1 ;
b1 A#
b1 S#
b1 X#
b101010 T
b101010 F#
b101010 P#
b101010 U#
b100 C
b100 i
b100 4"
b0 U
b0 r
b0 1"
b0 ;#
b0 G#
b0 K#
b0 =
b0 e
b0 5"
b0 =#
b0 N#
b0 /
b0 ^
b0 8"
b1000 D#
b1000 L#
b100 Q
b100 o
b100 2"
b100 <#
b1000000010100 I
b1000000010100 j
b1000000010100 3"
b1100 #
b1100 '
b1100 O
b1100 T"
b1100 x"
b1100 +#
b1100 .#
b10100 *#
b10100 7#
b10100 8#
b100000011000000100100 '#
b100000011000000100100 ,#
b100000011000000100100 0#
b10000 )#
b10000 -#
b10000 1#
b10000 4#
b10000 5#
b1000 n
b1000 ""
b1000 %"
b1000 P
b1000 p
b1000 w
b1000 $"
b1000 0"
b1000 S"
b1000 z"
1$
#50000
0$
#55000
0D"
b1 P"
b1 a"
b1 c"
b0 N"
b0 e"
b0 o"
1H"
b11 Y"
b11 ]"
b100100 _"
b1 :"
b1 g"
b1 t"
b0 "
b0 (
b0 M
b0 R"
b0 i"
b0 [#
b11000 &#
b11000 3#
b11000 :#
b1100 +
b1100 %#
b1100 9#
b1100 D
b1100 Z
b1100 h
b1100 '"
b1100 )"
b100000011000000100100 !
b100000011000000100100 *
b100000011000000100100 G
b100000011000000100100 M"
b100000011000000100100 d"
b100000011000000100100 w"
b100000011000000100100 (#
b100000011000000100100 /#
b10000 #
b10000 '
b10000 O
b10000 T"
b10000 x"
b10000 +#
b10000 .#
b1000 C
b1000 i
b1000 4"
b1100 D#
b1100 L#
b1000 Q
b1000 o
b1000 2"
b1000 <#
b0 :
b0 G"
b0 h"
b0 Y#
b0 ;
b0 A#
b0 S#
b0 X#
b1000 N
b1000 E#
b1000 Q#
b1000 V#
b0 T
b0 F#
b0 P#
b0 U#
b11000 *#
b11000 7#
b11000 8#
b1000000010100 '#
b1000000010100 ,#
b1000000010100 0#
b10100 )#
b10100 -#
b10100 1#
b10100 4#
b10100 5#
b1100 n
b1100 ""
b1100 %"
b1100 P
b1100 p
b1100 w
b1100 $"
b1100 0"
b1100 S"
b1100 z"
1$
#60000
b101010 ;"
b101010 k"
b101010 u"
0$
#65000
1D"
b0 P"
b0 a"
b0 c"
0H"
b1 Y"
b1 ]"
b10100 _"
b0 :"
b0 g"
b0 t"
b11100 &#
b11100 3#
b11100 :#
b10000 +
b10000 %#
b10000 9#
b10000 D
b10000 Z
b10000 h
b10000 '"
b10000 )"
b1100 N
b1100 E#
b1100 Q#
b1100 V#
b1100 C
b1100 i
b1100 4"
b10000 D#
b10000 L#
b1100 Q
b1100 o
b1100 2"
b1100 <#
b1000000010100 !
b1000000010100 *
b1000000010100 G
b1000000010100 M"
b1000000010100 d"
b1000000010100 w"
b1000000010100 (#
b1000000010100 /#
b10100 #
b10100 '
b10100 O
b10100 T"
b10100 x"
b10100 +#
b10100 .#
b11100 *#
b11100 7#
b11100 8#
b11000 )#
b11000 -#
b11000 1#
b11000 4#
b11000 5#
b1 .
b1 _
b1 +"
b1 ="
b1 ##
b101010 ,
b101010 ]
b101010 {
b101010 *"
b101010 <"
b101010 $#
08
1?
b10000 n
b10000 ""
b10000 %"
b10000 P
b10000 p
b10000 w
b10000 $"
b10000 0"
b10000 S"
b10000 z"
b100000011000000100100 H
b100000011000000100100 k
b100000011000000100100 /"
b100000011000000100100 L"
b100000011000000100100 |"
1$
#70000
b0 ;"
b0 k"
b0 u"
0$
#75000
b100000 &#
b100000 3#
b100000 :#
b10100 +
b10100 %#
b10100 9#
b10100 D
b10100 Z
b10100 h
b10100 '"
b10100 )"
b11000 #
b11000 '
b11000 O
b11000 T"
b11000 x"
b11000 +#
b11000 .#
b10000 C
b10000 i
b10000 4"
b1 /
b1 ^
b1 8"
b101010 -
b101010 \
b101010 9"
b101010 ?#
b101010 H#
09
1@
b10100 D#
b10100 L#
b10000 Q
b10000 o
b10000 2"
b10000 <#
b100000011000000100100 I
b100000011000000100100 j
b100000011000000100100 3"
b10000 N
b10000 E#
b10000 Q#
b10000 V#
b100000 *#
b100000 7#
b100000 8#
b11100 )#
b11100 -#
b11100 1#
b11100 4#
b11100 5#
b0 .
b0 _
b0 +"
b0 ="
b0 ##
b0 ,
b0 ]
b0 {
b0 *"
b0 <"
b0 $#
18
0?
b10100 n
b10100 ""
b10100 %"
b10100 P
b10100 p
b10100 w
b10100 $"
b10100 0"
b10100 S"
b10100 z"
b1000000010100 H
b1000000010100 k
b1000000010100 /"
b1000000010100 L"
b1000000010100 |"
1$
#80000
0$
#85000
b100100 &#
b100100 3#
b100100 :#
b11000 +
b11000 %#
b11000 9#
b11000 D
b11000 Z
b11000 h
b11000 '"
b11000 )"
06
07
b10100 N
b10100 E#
b10100 Q#
b10100 V#
b10100 C
b10100 i
b10100 4"
b0 /
b0 ^
b0 8"
b0 -
b0 \
b0 9"
b0 ?#
b0 H#
19
0@
b11000 D#
b11000 L#
b10100 Q
b10100 o
b10100 2"
b10100 <#
b1000000010100 I
b1000000010100 j
b1000000010100 3"
b11100 #
b11100 '
b11100 O
b11100 T"
b11100 x"
b11100 +#
b11100 .#
b100100 *#
b100100 7#
b100100 8#
b11000100010100 '#
b11000100010100 ,#
b11000100010100 0#
b100000 )#
b100000 -#
b100000 1#
b100000 4#
b100000 5#
b11000 n
b11000 ""
b11000 %"
b11000 P
b11000 p
b11000 w
b11000 $"
b11000 0"
b11000 S"
b11000 z"
1$
#90000
0$
#95000
b1 B"
b1 `"
b1 q"
1I"
b11 Y"
b11 ]"
b10 E"
b10 p"
b101000 &#
b101000 3#
b101000 :#
b11100 +
b11100 %#
b11100 9#
b11100 D
b11100 Z
b11100 h
b11100 '"
b11100 )"
b11000100010100 !
b11000100010100 *
b11000100010100 G
b11000100010100 M"
b11000100010100 d"
b11000100010100 w"
b11000100010100 (#
b11000100010100 /#
b100000 #
b100000 '
b100000 O
b100000 T"
b100000 x"
b100000 +#
b100000 .#
b11000 C
b11000 i
b11000 4"
b11100 D#
b11100 L#
b11000 Q
b11000 o
b11000 2"
b11000 <#
16
17
b11000 N
b11000 E#
b11000 Q#
b11000 V#
b101000 *#
b101000 7#
b101000 8#
b1000000010100 '#
b1000000010100 ,#
b1000000010100 0#
b100100 )#
b100100 -#
b100100 1#
b100100 4#
b100100 5#
b11100 n
b11100 ""
b11100 %"
b11100 P
b11100 p
b11100 w
b11100 $"
b11100 0"
b11100 S"
b11100 z"
1$
#100000
0$
#105000
b0 B"
b0 `"
b0 q"
0I"
b1 Y"
b1 ]"
b0 E"
b0 p"
b101100 &#
b101100 3#
b101100 :#
b100000 +
b100000 %#
b100000 9#
b100000 D
b100000 Z
b100000 h
b100000 '"
b100000 )"
b11100 N
b11100 E#
b11100 Q#
b11100 V#
b11100 C
b11100 i
b11100 4"
b100000 D#
b100000 L#
b11100 Q
b11100 o
b11100 2"
b11100 <#
b1000000010100 !
b1000000010100 *
b1000000010100 G
b1000000010100 M"
b1000000010100 d"
b1000000010100 w"
b1000000010100 (#
b1000000010100 /#
b100100 #
b100100 '
b100100 O
b100100 T"
b100100 x"
b100100 +#
b100100 .#
b101100 *#
b101100 7#
b101100 8#
b101000 )#
b101000 -#
b101000 1#
b101000 4#
b101000 5#
b10 <
b10 f
b10 ."
b10 F"
b10 }"
b1 4
b1 d
b1 -"
b1 C"
b1 ~"
1A
b100000 n
b100000 ""
b100000 %"
b100000 P
b100000 p
b100000 w
b100000 $"
b100000 0"
b100000 S"
b100000 z"
b11000100010100 H
b11000100010100 k
b11000100010100 /"
b11000100010100 L"
b11000100010100 |"
1$
#110000
0$
#115000
b101010 B#
b101010 I#
b101010 M#
b110000 &#
b110000 3#
b110000 :#
b100100 +
b100100 %#
b100100 9#
b100100 D
b100100 Z
b100100 h
b100100 '"
b100100 )"
b101000 #
b101000 '
b101000 O
b101000 T"
b101000 x"
b101000 +#
b101000 .#
b100000 C
b100000 i
b100000 4"
b10 =
b10 e
b10 5"
b10 =#
b10 N#
b1 5
b1 c
b1 6"
b1 >#
b1 O#
1B
b100100 D#
b100100 L#
b100000 Q
b100000 o
b100000 2"
b100000 <#
b11000100010100 I
b11000100010100 j
b11000100010100 3"
b100000 N
b100000 E#
b100000 Q#
b100000 V#
b110000 *#
b110000 7#
b110000 8#
b101100 )#
b101100 -#
b101100 1#
b101100 4#
b101100 5#
b0 <
b0 f
b0 ."
b0 F"
b0 }"
b0 4
b0 d
b0 -"
b0 C"
b0 ~"
0A
b100100 n
b100100 ""
b100100 %"
b100100 P
b100100 p
b100100 w
b100100 $"
b100100 0"
b100100 S"
b100100 z"
b1000000010100 H
b1000000010100 k
b1000000010100 /"
b1000000010100 L"
b1000000010100 |"
1$
#120000
0$
