logs/cpu_tb.vcd
$date
	Tue Apr 21 14:18:08 2026
$end
$version
	Icarus Verilog
$end
$timescale
	1ps
$end
$scope module cpu_tb $end
$var wire 32 ! instruction [31:0] $end
$var wire 32 " WB_result [31:0] $end
$var wire 32 # PC [31:0] $end
$var reg 1 $ clk $end
$var reg 1 % rst $end
$scope module uut $end
$var wire 1 & PCSel_w $end
$var wire 32 ' PC_fetch_out [31:0] $end
$var wire 32 ( WB_result_out [31:0] $end
$var wire 1 $ clk $end
$var wire 1 ) flush_w $end
$var wire 32 * instr_fetch_out [31:0] $end
$var wire 32 + jump_target_w [31:0] $end
$var wire 1 % rst $end
$var wire 32 , rs2_val_id_w [31:0] $end
$var wire 32 - rs2_val_ex_w [31:0] $end
$var wire 5 . rs2_id_w [4:0] $end
$var wire 5 / rs2_ex_w [4:0] $end
$var wire 32 0 rs1_val_id_w [31:0] $end
$var wire 5 1 rs1_id_w [4:0] $end
$var wire 5 2 rs1_ex_w [4:0] $end
$var wire 2 3 resultSrc_mem_w [1:0] $end
$var wire 2 4 resultSrc_id_w [1:0] $end
$var wire 2 5 resultSrc_ex_w [1:0] $end
$var wire 1 6 regWrite_wb_w $end
$var wire 1 7 regWrite_mem_w $end
$var wire 1 8 regWrite_id_w $end
$var wire 1 9 regWrite_ex_w $end
$var wire 5 : rd_wb_w [4:0] $end
$var wire 5 ; rd_mem_w [4:0] $end
$var wire 5 < rd_id_w [4:0] $end
$var wire 5 = rd_ex_w [4:0] $end
$var wire 32 > mem_result_mem_w [31:0] $end
$var wire 1 ? memWrite_id_w $end
$var wire 1 @ memWrite_ex_w $end
$var wire 1 A memRead_id_w $end
$var wire 1 B memRead_ex_w $end
$var wire 32 C jump_target_ex_w [31:0] $end
$var wire 1 D jump_id_w $end
$var wire 1 E jalr_id_w $end
$var wire 32 F instr_if_w [31:0] $end
$var wire 32 G instr_id_w [31:0] $end
$var wire 32 H instr_ex_w [31:0] $end
$var wire 32 I immediate_id_w [31:0] $end
$var wire 1 J branch_id_w $end
$var wire 1 K bgef3_id_w $end
$var wire 32 L WB_result_w [31:0] $end
$var wire 32 M PC_plus_4_mem_w [31:0] $end
$var wire 32 N PC_if_w [31:0] $end
$var wire 32 O PC_id_w [31:0] $end
$var wire 32 P PC_ex_w [31:0] $end
$var wire 1 Q PCSel_ex_w $end
$var wire 32 R ALU_result_mem_w [31:0] $end
$var wire 32 S ALU_result_ex_w [31:0] $end
$var wire 1 T ALUSrc_id_w $end
$var wire 4 U ALUControl_id_w [3:0] $end
$scope module EX_STAGE $end
$var wire 1 V ALUSrc_jal $end
$var wire 1 W PCSel_w $end
$var wire 1 $ clk $end
$var wire 1 % rst $end
$var wire 1 X zero $end
$var wire 32 Y rs2_val_out [31:0] $end
$var wire 32 Z rs2_val_in [31:0] $end
$var wire 5 [ rs2_out [4:0] $end
$var wire 5 \ rs2_in [4:0] $end
$var wire 32 ] rs1_val [31:0] $end
$var wire 5 ^ rs1_out [4:0] $end
$var wire 5 _ rs1_in [4:0] $end
$var wire 2 ` resultSrc_out [1:0] $end
$var wire 2 a resultSrc_in [1:0] $end
$var wire 1 9 regWrite_out $end
$var wire 1 8 regWrite_in $end
$var wire 5 b rd_out [4:0] $end
$var wire 5 c rd_in [4:0] $end
$var wire 1 d negative $end
$var wire 1 @ memWrite_out $end
$var wire 1 ? memWrite_in $end
$var wire 1 B memRead_out $end
$var wire 1 A memRead_in $end
$var wire 32 e jump_target_w [31:0] $end
$var wire 32 f jump_target_out [31:0] $end
$var wire 1 D jump $end
$var wire 1 E jalr $end
$var wire 32 g instruction_out [31:0] $end
$var wire 32 h instruction_in [31:0] $end
$var wire 32 i immediate [31:0] $end
$var wire 1 j condition_met $end
$var wire 1 J branch $end
$var wire 1 K bgef3 $end
$var wire 32 k PC_plus_imm [31:0] $end
$var wire 32 l PC_out [31:0] $end
$var wire 32 m PC_in [31:0] $end
$var wire 1 Q PCSel_out $end
$var wire 32 n ALU_result_w [31:0] $end
$var wire 32 o ALU_result_out [31:0] $end
$var wire 32 p ALU_in_B [31:0] $end
$var wire 32 q ALU_in_A [31:0] $end
$var wire 1 T ALUSrc $end
$var wire 4 r ALUControl [3:0] $end
$scope module ALU_A_mux $end
$var wire 1 V s $end
$var wire 32 s f [31:0] $end
$var wire 32 t b [31:0] $end
$var wire 32 u a [31:0] $end
$upscope $end
$scope module ALU_B_mux $end
$var wire 1 T s $end
$var wire 32 v f [31:0] $end
$var wire 32 w b [31:0] $end
$var wire 32 x a [31:0] $end
$upscope $end
$scope module alu_ $end
$var wire 32 y A [31:0] $end
$var wire 32 z B [31:0] $end
$var wire 1 X zero $end
$var wire 32 { result [31:0] $end
$var wire 1 d negative $end
$var wire 4 | ALUControl [3:0] $end
$upscope $end
$scope module branch_adder $end
$var wire 32 } f [31:0] $end
$var wire 32 ~ b [31:0] $end
$var wire 32 !" a [31:0] $end
$upscope $end
$scope module branch_jump_mux $end
$var wire 32 "" a [31:0] $end
$var wire 32 #" b [31:0] $end
$var wire 1 E s $end
$var wire 32 $" f [31:0] $end
$upscope $end
$scope module pipe_reg $end
$var wire 32 %" ALU_result_r [31:0] $end
$var wire 1 W PCSel_r $end
$var wire 1 $ clk $end
$var wire 32 &" jump_target_r [31:0] $end
$var wire 1 % rst $end
$var wire 32 '" rs2_val_r [31:0] $end
$var wire 5 (" rs2_r [4:0] $end
$var wire 5 )" rs1_r [4:0] $end
$var wire 2 *" resultSrc_r [1:0] $end
$var wire 1 8 regWrite_r $end
$var wire 5 +" rd_r [4:0] $end
$var wire 1 ? memWrite_r $end
$var wire 1 A memRead_r $end
$var wire 32 ," instruction_r [31:0] $end
$var wire 32 -" PC_r [31:0] $end
$var reg 32 ." ALU_result [31:0] $end
$var reg 32 /" PC [31:0] $end
$var reg 1 Q PCSel $end
$var reg 32 0" instruction [31:0] $end
$var reg 32 1" jump_target [31:0] $end
$var reg 1 B memRead $end
$var reg 1 @ memWrite $end
$var reg 5 2" rd [4:0] $end
$var reg 1 9 regWrite $end
$var reg 2 3" resultSrc [1:0] $end
$var reg 5 4" rs1 [4:0] $end
$var reg 5 5" rs2 [4:0] $end
$var reg 32 6" rs2_val [31:0] $end
$upscope $end
$upscope $end
$scope module ID_STAGE $end
$var wire 1 $ clk $end
$var wire 1 ) flush $end
$var wire 1 % rst $end
$var wire 5 7" rs2_w [4:0] $end
$var wire 32 8" rs2_val_w [31:0] $end
$var wire 32 9" rs2_val_out [31:0] $end
$var wire 5 :" rs2_out [4:0] $end
$var wire 5 ;" rs1_w [4:0] $end
$var wire 32 <" rs1_val_w [31:0] $end
$var wire 32 =" rs1_val_out [31:0] $end
$var wire 5 >" rs1_out [4:0] $end
$var wire 2 ?" resultSrc_w [1:0] $end
$var wire 2 @" resultSrc_out [1:0] $end
$var wire 1 A" regWrite_w $end
$var wire 1 8 regWrite_out $end
$var wire 1 6 regWrite_in $end
$var wire 5 B" rd_w [4:0] $end
$var wire 5 C" rd_out [4:0] $end
$var wire 5 D" rd_in [4:0] $end
$var wire 1 E" memWrite_w $end
$var wire 1 ? memWrite_out $end
$var wire 1 F" memRead_w $end
$var wire 1 A memRead_out $end
$var wire 1 G" jump_w $end
$var wire 1 D jump_out $end
$var wire 1 H" jalr_w $end
$var wire 1 E jalr_out $end
$var wire 32 I" instruction_out [31:0] $end
$var wire 32 J" instruction_in [31:0] $end
$var wire 32 K" immediate_w [31:0] $end
$var wire 32 L" immediate_out [31:0] $end
$var wire 2 M" immSrc [1:0] $end
$var wire 1 N" branch_w $end
$var wire 1 J branch_out $end
$var wire 1 K bgef3_out $end
$var wire 32 O" WB_result [31:0] $end
$var wire 32 P" PC_out [31:0] $end
$var wire 32 Q" PC_in [31:0] $end
$var wire 1 R" ALUSrc_w $end
$var wire 1 T ALUSrc_out $end
$var wire 2 S" ALUOp [1:0] $end
$var wire 4 T" ALUControl_w [3:0] $end
$var wire 4 U" ALUControl_out [3:0] $end
$var reg 1 V" flush_r $end
$scope module ALUControl $end
$var wire 3 W" funct3 [2:0] $end
$var wire 7 X" funct7 [6:0] $end
$var wire 2 Y" ALUOp [1:0] $end
$var wire 4 Z" ALUControl [3:0] $end
$upscope $end
$scope module CU $end
$var wire 3 [" funct3 [2:0] $end
$var wire 7 \" funct7 [6:0] $end
$var wire 7 ]" opcode [6:0] $end
$var wire 2 ^" resultSrc [1:0] $end
$var wire 1 A" regWrite $end
$var wire 1 E" memWrite $end
$var wire 1 F" memRead $end
$var wire 1 G" jump $end
$var wire 1 H" jalr $end
$var wire 2 _" immSrc [1:0] $end
$var wire 1 N" branch $end
$var wire 1 R" ALUSrc $end
$var wire 2 `" ALUOp [1:0] $end
$upscope $end
$scope module IMM $end
$var wire 2 a" immSrc [1:0] $end
$var wire 32 b" inst [31:0] $end
$var wire 32 c" immediate [31:0] $end
$upscope $end
$scope module RF $end
$var wire 1 $ clk $end
$var wire 5 d" rs1 [4:0] $end
$var wire 5 e" rs2 [4:0] $end
$var wire 1 % rst $end
$var wire 1 6 regWrite $end
$var wire 5 f" rd [4:0] $end
$var wire 32 g" WB_result [31:0] $end
$var reg 32 h" rs1_val [31:0] $end
$var reg 32 i" rs2_val [31:0] $end
$var integer 32 j" i [31:0] $end
$upscope $end
$scope module pipe_reg $end
$var wire 4 k" ALUControl_r [3:0] $end
$var wire 1 R" ALUSrc_r $end
$var wire 1 l" bgef3_r $end
$var wire 1 N" branch_r $end
$var wire 1 $ clk $end
$var wire 32 m" immediate_r [31:0] $end
$var wire 1 H" jalr_r $end
$var wire 1 G" jump_r $end
$var wire 1 F" memRead_r $end
$var wire 1 E" memWrite_r $end
$var wire 5 n" rd_r [4:0] $end
$var wire 1 A" regWrite_r $end
$var wire 2 o" resultSrc_r [1:0] $end
$var wire 5 p" rs1_r [4:0] $end
$var wire 32 q" rs1_val_r [31:0] $end
$var wire 5 r" rs2_r [4:0] $end
$var wire 32 s" rs2_val_r [31:0] $end
$var wire 1 t" rst $end
$var wire 32 u" instruction_r [31:0] $end
$var wire 32 v" PC_r [31:0] $end
$var reg 4 w" ALUControl [3:0] $end
$var reg 1 T ALUSrc $end
$var reg 32 x" PC [31:0] $end
$var reg 1 K bgef3 $end
$var reg 1 J branch $end
$var reg 32 y" immediate [31:0] $end
$var reg 32 z" instruction [31:0] $end
$var reg 1 E jalr $end
$var reg 1 D jump $end
$var reg 1 A memRead $end
$var reg 1 ? memWrite $end
$var reg 5 {" rd [4:0] $end
$var reg 1 8 regWrite $end
$var reg 2 |" resultSrc [1:0] $end
$var reg 5 }" rs1 [4:0] $end
$var reg 32 ~" rs1_val [31:0] $end
$var reg 5 !# rs2 [4:0] $end
$var reg 32 "# rs2_val [31:0] $end
$upscope $end
$upscope $end
$scope module IF_STAGE $end
$var wire 1 & PCSel $end
$var wire 1 $ clk $end
$var wire 32 ## jump_target [31:0] $end
$var wire 1 % rst $end
$var wire 32 $# next_PC_val [31:0] $end
$var wire 32 %# instruction_w [31:0] $end
$var wire 32 &# instruction_out [31:0] $end
$var wire 32 '# PC_w [31:0] $end
$var wire 32 (# PC_plus_4 [31:0] $end
$var wire 32 )# PC_out [31:0] $end
$scope module IFID $end
$var wire 1 $ clk $end
$var wire 1 & flush $end
$var wire 1 % rst $end
$var wire 32 *# instr_r [31:0] $end
$var wire 32 +# PC_r [31:0] $end
$var reg 32 ,# PC [31:0] $end
$var reg 32 -# instr [31:0] $end
$upscope $end
$scope module IM $end
$var wire 32 .# instruction [31:0] $end
$var wire 32 /# PC [31:0] $end
$var integer 32 0# i [31:0] $end
$upscope $end
$scope module PC_Reg $end
$var wire 1 $ clk $end
$var wire 1 % rst $end
$var wire 32 1# PC_mux_output [31:0] $end
$var reg 32 2# PC [31:0] $end
$upscope $end
$scope module adder_4 $end
$var wire 32 3# a [31:0] $end
$var wire 32 4# b [31:0] $end
$var wire 32 5# f [31:0] $end
$upscope $end
$scope module mux $end
$var wire 32 6# a [31:0] $end
$var wire 32 7# b [31:0] $end
$var wire 1 & s $end
$var wire 32 8# f [31:0] $end
$upscope $end
$upscope $end
$scope module MEM_STAGE $end
$var wire 32 9# ALU_result_in [31:0] $end
$var wire 32 :# PC_in [31:0] $end
$var wire 1 $ clk $end
$var wire 1 B memRead_in $end
$var wire 1 @ memWrite_in $end
$var wire 5 ;# rd_in [4:0] $end
$var wire 1 9 regWrite_in $end
$var wire 2 <# resultSrc_in [1:0] $end
$var wire 32 =# rs2_val_in [31:0] $end
$var wire 1 % rst $end
$var wire 2 ># resultSrc_out [1:0] $end
$var wire 1 7 regWrite_out $end
$var wire 5 ?# rd_out [4:0] $end
$var wire 32 @# mem_result_w [31:0] $end
$var wire 32 A# mem_result_out [31:0] $end
$var wire 32 B# PC_plus_4_w [31:0] $end
$var wire 32 C# PC_plus_4_out [31:0] $end
$var wire 32 D# ALU_result_out [31:0] $end
$scope module DMEM $end
$var wire 32 E# ALU_result [31:0] $end
$var wire 1 $ clk $end
$var wire 1 B memRead $end
$var wire 1 @ memWrite $end
$var wire 32 F# rs2_val [31:0] $end
$var reg 32 G# mem_result [31:0] $end
$var integer 32 H# i [31:0] $end
$upscope $end
$scope module pipe_reg $end
$var wire 32 I# ALU_result_r [31:0] $end
$var wire 32 J# PC_plus_4_r [31:0] $end
$var wire 1 $ clk $end
$var wire 32 K# mem_result_r [31:0] $end
$var wire 5 L# rd_r [4:0] $end
$var wire 1 9 regWrite_r $end
$var wire 2 M# resultSrc_r [1:0] $end
$var wire 1 % rst $end
$var reg 32 N# ALU_result [31:0] $end
$var reg 32 O# PC_plus_4 [31:0] $end
$var reg 32 P# mem_result [31:0] $end
$var reg 5 Q# rd [4:0] $end
$var reg 1 7 regWrite $end
$var reg 2 R# resultSrc [1:0] $end
$upscope $end
$upscope $end
$scope module WB_STAGE $end
$var wire 32 S# ALU_result_in [31:0] $end
$var wire 32 T# PC_plus_4_in [31:0] $end
$var wire 32 U# mem_result_in [31:0] $end
$var wire 5 V# rd_in [4:0] $end
$var wire 5 W# rd_out [4:0] $end
$var wire 1 7 regWrite_in $end
$var wire 1 6 regWrite_out $end
$var wire 2 X# resultSrc_in [1:0] $end
$var wire 32 Y# WB_result_out [31:0] $end
$upscope $end
$upscope $end
$upscope $end
$enddefinitions $end
$comment Show the parameter values. $end
$dumpall
$end
#0
$dumpvars
b0 Y#
b0 X#
b0 W#
b0 V#
b0 U#
b0 T#
b0 S#
b0 R#
b0 Q#
b0 P#
b0 O#
b0 N#
b0 M#
b0 L#
b0 K#
b100 J#
b0 I#
b10000000000 H#
b0 G#
b0 F#
b0 E#
b0 D#
b0 C#
b100 B#
b0 A#
b0 @#
b0 ?#
b0 >#
b0 =#
b0 <#
b0 ;#
b0 :#
b0 9#
bx 8#
b0 7#
bx 6#
bx 5#
b100 4#
bx 3#
bx 2#
bx 1#
b100000000000000 0#
bx /#
bx .#
b0 -#
b0 ,#
bx +#
bx *#
b0 )#
bx (#
bx '#
b0 &#
bx %#
bx $#
b0 ##
b0 "#
b0 !#
b0 ~"
b0 }"
b0 |"
b0 {"
b0 z"
b0 y"
b0 x"
b0 w"
b0 v"
b0 u"
1t"
b0 s"
b0 r"
b0 q"
b0 p"
b0 o"
b0 n"
b0 m"
0l"
b0 k"
b100000 j"
b0 i"
b0 h"
b0 g"
b0 f"
b0 e"
b0 d"
b0 c"
b0 b"
b11 a"
b1 `"
b11 _"
b0 ^"
b0 ]"
b0 \"
b0 ["
b0 Z"
b1 Y"
b0 X"
b0 W"
0V"
b0 U"
b0 T"
b1 S"
1R"
b0 Q"
b0 P"
b0 O"
0N"
b11 M"
b0 L"
b0 K"
b0 J"
b0 I"
0H"
0G"
0F"
0E"
b0 D"
b0 C"
b0 B"
1A"
b0 @"
b0 ?"
b0 >"
b0 ="
b0 <"
b0 ;"
b0 :"
b0 9"
b0 8"
b0 7"
b0 6"
b0 5"
b0 4"
b0 3"
b0 2"
b0 1"
b0 0"
b0 /"
b0 ."
b0 -"
b0 ,"
b0 +"
b0 *"
b0 )"
b0 ("
b0 '"
b0 &"
b0 %"
b0 $"
b0 #"
b0 ""
b0 !"
b0 ~
b0 }
b0 |
b0 {
b0 z
b0 y
b0 x
b0 w
b0 v
b0 u
b0 t
b0 s
b0 r
b0 q
b0 p
b0 o
b0 n
b0 m
b0 l
b0 k
0j
b0 i
b0 h
b0 g
b0 f
b0 e
0d
b0 c
b0 b
b0 a
b0 `
b0 _
b0 ^
b0 ]
b0 \
b0 [
b0 Z
b0 Y
1X
0W
0V
b0 U
0T
b0 S
b0 R
0Q
b0 P
b0 O
b0 N
b0 M
b0 L
0K
0J
b0 I
b0 H
b0 G
b0 F
0E
0D
b0 C
0B
0A
0@
0?
b0 >
b0 =
b0 <
b0 ;
b0 :
09
08
07
06
b0 5
b0 4
b0 3
b0 2
b0 1
b0 0
b0 /
b0 .
b0 -
b0 ,
b0 +
b0 *
0)
b0 (
b0 '
0&
1%
0$
b0 #
b0 "
b0 !
$end
#5000
b100 $#
b100 1#
b100 8#
b100 (#
b100 5#
b100 6#
b10101000000001000010010100 %#
b10101000000001000010010100 *#
b10101000000001000010010100 .#
b0 '#
b0 +#
b0 /#
b0 2#
b0 3#
1$
#10000
0t"
0$
0%
#15000
b1 S"
b1 Y"
b1 `"
b101010 K"
b101010 c"
b101010 m"
b0 M"
b0 _"
b0 a"
b1 X"
b1 W"
b1 ["
b1 \"
b10100 ]"
b1 B"
b1 n"
b1010 7"
b1010 e"
b1010 r"
b1000 $#
b1000 1#
b1000 8#
b10101000000001000010010100 !
b10101000000001000010010100 *
b10101000000001000010010100 F
b10101000000001000010010100 J"
b10101000000001000010010100 b"
b10101000000001000010010100 u"
b10101000000001000010010100 &#
b10101000000001000010010100 -#
b100 M
b100 C#
b100 O#
b100 T#
b1000 (#
b1000 5#
b1000 6#
b1000000010100 %#
b1000000010100 *#
b1000000010100 .#
b100 '#
b100 +#
b100 /#
b100 2#
b100 3#
18
1T
1$
#20000
0$
#25000
1j
b0 K"
b0 c"
b0 m"
0X
b101010 n
b101010 {
b101010 #"
b101010 %"
b0 X"
b0 \"
b0 B"
b0 n"
b0 7"
b0 e"
b0 r"
b1100 $#
b1100 1#
b1100 8#
b101010 e
b101010 $"
b101010 &"
b101010 p
b101010 v
b101010 z
19
b1000000010100 !
b1000000010100 *
b1000000010100 F
b1000000010100 J"
b1000000010100 b"
b1000000010100 u"
b1000000010100 &#
b1000000010100 -#
b100 #
b100 '
b100 N
b100 Q"
b100 v"
b100 )#
b100 ,#
b1100 (#
b1100 5#
b1100 6#
b1000 '#
b1000 +#
b1000 /#
b1000 2#
b1000 3#
b1 <
b1 c
b1 +"
b1 C"
b1 {"
b1010 .
b1010 \
b1010 ("
b1010 :"
b1010 !#
b101010 k
b101010 }
b101010 ""
b101010 I
b101010 i
b101010 w
b101010 ~
b101010 L"
b101010 y"
b10101000000001000010010100 G
b10101000000001000010010100 h
b10101000000001000010010100 ,"
b10101000000001000010010100 I"
b10101000000001000010010100 z"
1$
#30000
0$
#35000
0j
1X
b0 n
b0 {
b0 #"
b0 %"
b10000 $#
b10000 1#
b10000 8#
b0 p
b0 v
b0 z
b100 e
b100 $"
b100 &"
b1000 #
b1000 '
b1000 N
b1000 Q"
b1000 v"
b1000 )#
b1000 ,#
b101010 +
b101010 ##
b101010 7#
b101010 C
b101010 f
b101010 1"
b101010 S
b101010 o
b101010 ."
b101010 9#
b101010 E#
b101010 I#
b1 =
b1 b
b1 2"
b1 ;#
b1 L#
b1010 /
b1010 [
b1010 5"
b10101000000001000010010100 H
b10101000000001000010010100 g
b10101000000001000010010100 0"
16
17
b10000 (#
b10000 5#
b10000 6#
b1100 '#
b1100 +#
b1100 /#
b1100 2#
b1100 3#
b0 <
b0 c
b0 +"
b0 C"
b0 {"
b0 .
b0 \
b0 ("
b0 :"
b0 !#
b0 I
b0 i
b0 w
b0 ~
b0 L"
b0 y"
b100 k
b100 }
b100 ""
b100 O
b100 m
b100 t
b100 !"
b100 -"
b100 P"
b100 x"
b1000000010100 G
b1000000010100 h
b1000000010100 ,"
b1000000010100 I"
b1000000010100 z"
1$
#40000
0$
#45000
b101010 "
b101010 (
b101010 L
b101010 O"
b101010 g"
b101010 Y#
b10100 $#
b10100 1#
b10100 8#
b1000 e
b1000 $"
b1000 &"
b1 :
b1 D"
b1 f"
b1 W#
b1 ;
b1 ?#
b1 Q#
b1 V#
b101010 R
b101010 D#
b101010 N#
b101010 S#
b100 +
b100 ##
b100 7#
b100 C
b100 f
b100 1"
b0 S
b0 o
b0 ."
b0 9#
b0 E#
b0 I#
b0 =
b0 b
b0 2"
b0 ;#
b0 L#
b0 /
b0 [
b0 5"
b1000 B#
b1000 J#
b100 P
b100 l
b100 /"
b100 :#
b1000000010100 H
b1000000010100 g
b1000000010100 0"
b1100 #
b1100 '
b1100 N
b1100 Q"
b1100 v"
b1100 )#
b1100 ,#
b10100 (#
b10100 5#
b10100 6#
b100000011000000100100 %#
b100000011000000100100 *#
b100000011000000100100 .#
b10000 '#
b10000 +#
b10000 /#
b10000 2#
b10000 3#
b1000 k
b1000 }
b1000 ""
b1000 O
b1000 m
b1000 t
b1000 !"
b1000 -"
b1000 P"
b1000 x"
1$
#50000
0$
#55000
0A"
b1 M"
b1 _"
b1 a"
b0 K"
b0 c"
b0 m"
1E"
b11 W"
b11 ["
b100100 ]"
b1 7"
b1 e"
b1 r"
b0 "
b0 (
b0 L
b0 O"
b0 g"
b0 Y#
b11000 $#
b11000 1#
b11000 8#
b1100 e
b1100 $"
b1100 &"
b100000011000000100100 !
b100000011000000100100 *
b100000011000000100100 F
b100000011000000100100 J"
b100000011000000100100 b"
b100000011000000100100 u"
b100000011000000100100 &#
b100000011000000100100 -#
b10000 #
b10000 '
b10000 N
b10000 Q"
b10000 v"
b10000 )#
b10000 ,#
b1000 +
b1000 ##
b1000 7#
b1000 C
b1000 f
b1000 1"
b1100 B#
b1100 J#
b1000 P
b1000 l
b1000 /"
b1000 :#
b0 :
b0 D"
b0 f"
b0 W#
b0 ;
b0 ?#
b0 Q#
b0 V#
b1000 M
b1000 C#
b1000 O#
b1000 T#
b0 R
b0 D#
b0 N#
b0 S#
b11000 (#
b11000 5#
b11000 6#
b1000000010100 %#
b1000000010100 *#
b1000000010100 .#
b10100 '#
b10100 +#
b10100 /#
b10100 2#
b10100 3#
b1100 k
b1100 }
b1100 ""
b1100 O
b1100 m
b1100 t
b1100 !"
b1100 -"
b1100 P"
b1100 x"
1$
#60000
b101010 8"
b101010 i"
b101010 s"
0$
#65000
1A"
b0 M"
b0 _"
b0 a"
0E"
b1 W"
b1 ["
b10100 ]"
b0 7"
b0 e"
b0 r"
b11100 $#
b11100 1#
b11100 8#
b10000 e
b10000 $"
b10000 &"
b1100 M
b1100 C#
b1100 O#
b1100 T#
b1100 +
b1100 ##
b1100 7#
b1100 C
b1100 f
b1100 1"
b10000 B#
b10000 J#
b1100 P
b1100 l
b1100 /"
b1100 :#
b1000000010100 !
b1000000010100 *
b1000000010100 F
b1000000010100 J"
b1000000010100 b"
b1000000010100 u"
b1000000010100 &#
b1000000010100 -#
b10100 #
b10100 '
b10100 N
b10100 Q"
b10100 v"
b10100 )#
b10100 ,#
b11100 (#
b11100 5#
b11100 6#
b11000 '#
b11000 +#
b11000 /#
b11000 2#
b11000 3#
b1 .
b1 \
b1 ("
b1 :"
b1 !#
b101010 ,
b101010 Z
b101010 x
b101010 '"
b101010 9"
b101010 "#
08
1?
b10000 k
b10000 }
b10000 ""
b10000 O
b10000 m
b10000 t
b10000 !"
b10000 -"
b10000 P"
b10000 x"
b100000011000000100100 G
b100000011000000100100 h
b100000011000000100100 ,"
b100000011000000100100 I"
b100000011000000100100 z"
1$
#70000
b0 8"
b0 i"
b0 s"
0$
#75000
b100000 $#
b100000 1#
b100000 8#
b10100 e
b10100 $"
b10100 &"
b11000 #
b11000 '
b11000 N
b11000 Q"
b11000 v"
b11000 )#
b11000 ,#
b10000 +
b10000 ##
b10000 7#
b10000 C
b10000 f
b10000 1"
b1 /
b1 [
b1 5"
b101010 -
b101010 Y
b101010 6"
b101010 =#
b101010 F#
09
1@
b10100 B#
b10100 J#
b10000 P
b10000 l
b10000 /"
b10000 :#
b100000011000000100100 H
b100000011000000100100 g
b100000011000000100100 0"
b10000 M
b10000 C#
b10000 O#
b10000 T#
b100000 (#
b100000 5#
b100000 6#
b11100 '#
b11100 +#
b11100 /#
b11100 2#
b11100 3#
b0 .
b0 \
b0 ("
b0 :"
b0 !#
b0 ,
b0 Z
b0 x
b0 '"
b0 9"
b0 "#
18
0?
b10100 k
b10100 }
b10100 ""
b10100 O
b10100 m
b10100 t
b10100 !"
b10100 -"
b10100 P"
b10100 x"
b1000000010100 G
b1000000010100 h
b1000000010100 ,"
b1000000010100 I"
b1000000010100 z"
1$
#80000
0$
#85000
b100100 $#
b100100 1#
b100100 8#
b11000 e
b11000 $"
b11000 &"
06
07
b10100 M
b10100 C#
b10100 O#
b10100 T#
b10100 +
b10100 ##
b10100 7#
b10100 C
b10100 f
b10100 1"
b0 /
b0 [
b0 5"
b0 -
b0 Y
b0 6"
b0 =#
b0 F#
19
0@
b11000 B#
b11000 J#
b10100 P
b10100 l
b10100 /"
b10100 :#
b1000000010100 H
b1000000010100 g
b1000000010100 0"
b11100 #
b11100 '
b11100 N
b11100 Q"
b11100 v"
b11100 )#
b11100 ,#
b100100 (#
b100100 5#
b100100 6#
b11000100010100 %#
b11000100010100 *#
b11000100010100 .#
b100000 '#
b100000 +#
b100000 /#
b100000 2#
b100000 3#
b11000 k
b11000 }
b11000 ""
b11000 O
b11000 m
b11000 t
b11000 !"
b11000 -"
b11000 P"
b11000 x"
1$
#90000
0$
#95000
b1 ?"
b1 ^"
b1 o"
1F"
b11 W"
b11 ["
b10 B"
b10 n"
b101000 $#
b101000 1#
b101000 8#
b11100 e
b11100 $"
b11100 &"
b11000100010100 !
b11000100010100 *
b11000100010100 F
b11000100010100 J"
b11000100010100 b"
b11000100010100 u"
b11000100010100 &#
b11000100010100 -#
b100000 #
b100000 '
b100000 N
b100000 Q"
b100000 v"
b100000 )#
b100000 ,#
b11000 +
b11000 ##
b11000 7#
b11000 C
b11000 f
b11000 1"
b11100 B#
b11100 J#
b11000 P
b11000 l
b11000 /"
b11000 :#
16
17
b11000 M
b11000 C#
b11000 O#
b11000 T#
b101000 (#
b101000 5#
b101000 6#
b1000000010100 %#
b1000000010100 *#
b1000000010100 .#
b100100 '#
b100100 +#
b100100 /#
b100100 2#
b100100 3#
b11100 k
b11100 }
b11100 ""
b11100 O
b11100 m
b11100 t
b11100 !"
b11100 -"
b11100 P"
b11100 x"
1$
#100000
0$
#105000
b0 ?"
b0 ^"
b0 o"
0F"
b1 W"
b1 ["
b0 B"
b0 n"
b101100 $#
b101100 1#
b101100 8#
b100000 e
b100000 $"
b100000 &"
b11100 M
b11100 C#
b11100 O#
b11100 T#
b11100 +
b11100 ##
b11100 7#
b11100 C
b11100 f
b11100 1"
b100000 B#
b100000 J#
b11100 P
b11100 l
b11100 /"
b11100 :#
b1000000010100 !
b1000000010100 *
b1000000010100 F
b1000000010100 J"
b1000000010100 b"
b1000000010100 u"
b1000000010100 &#
b1000000010100 -#
b100100 #
b100100 '
b100100 N
b100100 Q"
b100100 v"
b100100 )#
b100100 ,#
b101100 (#
b101100 5#
b101100 6#
b101000 '#
b101000 +#
b101000 /#
b101000 2#
b101000 3#
b10 <
b10 c
b10 +"
b10 C"
b10 {"
b1 4
b1 a
b1 *"
b1 @"
b1 |"
1A
b100000 k
b100000 }
b100000 ""
b100000 O
b100000 m
b100000 t
b100000 !"
b100000 -"
b100000 P"
b100000 x"
b11000100010100 G
b11000100010100 h
b11000100010100 ,"
b11000100010100 I"
b11000100010100 z"
1$
#110000
0$
#115000
b101010 @#
b101010 G#
b101010 K#
b110000 $#
b110000 1#
b110000 8#
b100100 e
b100100 $"
b100100 &"
b101000 #
b101000 '
b101000 N
b101000 Q"
b101000 v"
b101000 )#
b101000 ,#
b100000 +
b100000 ##
b100000 7#
b100000 C
b100000 f
b100000 1"
b10 =
b10 b
b10 2"
b10 ;#
b10 L#
b1 5
b1 `
b1 3"
b1 <#
b1 M#
1B
b100100 B#
b100100 J#
b100000 P
b100000 l
b100000 /"
b100000 :#
b11000100010100 H
b11000100010100 g
b11000100010100 0"
b100000 M
b100000 C#
b100000 O#
b100000 T#
b110000 (#
b110000 5#
b110000 6#
b101100 '#
b101100 +#
b101100 /#
b101100 2#
b101100 3#
b0 <
b0 c
b0 +"
b0 C"
b0 {"
b0 4
b0 a
b0 *"
b0 @"
b0 |"
0A
b100100 k
b100100 }
b100100 ""
b100100 O
b100100 m
b100100 t
b100100 !"
b100100 -"
b100100 P"
b100100 x"
b1000000010100 G
b1000000010100 h
b1000000010100 ,"
b1000000010100 I"
b1000000010100 z"
1$
#120000
0$
